// room script file
function on_event(EventType event, int data) {
  if (event==eEventEnterRoomBeforeFadein) 
{
       musique=(music_slider.Value);
     if (musique<=17) SetMusicVolume(-3);
else if ((musique>=18)&&(musique<=34))SetMusicVolume(-2);
else if ((musique>=35)&&(musique<=50))SetMusicVolume(-1);
else if ((musique>=51)&&(musique<=68))SetMusicVolume(0);
else if ((musique>=69)&&(musique<=85))SetMusicVolume(1);
else if ((musique>=86)&&(musique<=95))SetMusicVolume(2);
else if (musique>=96)SetMusicVolume(3);
SetMusicMasterVolume((music_slider.Value));
NatMusic(8);

  player.Transparency=0;
if (Stand.Room==15){Stand.Transparency=99;}

if (georgeisnorthbound==false){
if (GetGlobalInt(94)==0){//Bigby's
SetBackgroundFrame(0); door.Graphic=5158; Melody.Transparency=100;
SetWalkBehindBase (1,168);
cTimothy.LockView(29); counter.Transparency=100; cTimothy.Transparency=0;
salebuyer=("Tim"); customerlisten();
  if (cTimothy.Room!=15){cTimothy.ChangeRoom(15, 184, 133);}
}

if (GetGlobalInt(94)==1){//Fivestar
Melody.ChangeRoom(15, player.x+100, player.y);
SetBackgroundFrame(1); door.Graphic=5166; Melody.Transparency=0; Melody.Baseline=5;
SetWalkBehindBase (1,0);
cTimothy.Transparency=100; counter.Transparency=0;
salebuyer=("Melody"); customerlisten();}
}
else{//Andrus Ending
SetBackgroundFrame(4);
door.Visible=false;
cTimothy.ChangeRoom(4, 100, 100);
Melody.ChangeRoom(4, 100, 100);
SetWalkBehindBase(1, 0);
counter.Transparency=100;
Glembovski.ChangeRoom(15, player.x-15, player.y);
}


}}//End Pre-Load

function BigbyNumbers(){
  PlaySound(39);
  gDialog.Visible=false;
  bmu_text.Text=(" "); bmu_speaker.Text=(" ");
  PCListen(); 
  Mouse.Visible=true;
  
if (GetGlobalInt(94)==0){//Bigby...
salebuyer=("Tim"); customerlisten();
bmu_top.CharacterToUse=cTimothy;
gBigbyMenu.BackgroundGraphic=384;
gBigbyMenu.Visible=true;

if ((walmartia>400.00)&&(walmartia<600.00)){
int tbr = Random(3);
if (tbr==0){PCListen(); customertalk(); bmu_text.Text=("So..."); blab1();
            PCTalk(); customerlisten(); bmu_text.Text=("Yes, Tim?"); blab1();
            PCListen(); customertalk(); bmu_text.Text=("How's your business?"); blab1();
            PCTalk(); customerlisten(); bmu_text.Text=("It's fine."); blab1();
            PCListen(); customertalk(); bmu_text.Text=("That's great. You should be grateful."); blab3();
            PCListen(); customerlisten(); bmu_text.Text=(" "); bmu_speaker.Text=(" ");}
if (tbr==1){PCListen(); customertalk(); bmu_text.Text=("So...");blab1();
            PCTalk(); customerlisten(); bmu_text.Text=("Yes, Tim?"); blab1();
            PCListen(); customertalk(); bmu_text.Text=("How's business?"); blab1();
            PCTalk(); customerlisten(); bmu_text.Text=("It's fine."); blab1();
            PCTalk(); customerlisten(); bmu_text.Text=("Well, that makes one of us."); blab2();
            PCTalk(); customerlisten(); bmu_text.Text=("What do you mean?"); blab1();
            PCTalk(); customerlisten(); bmu_text.Text=("Oh, nothing. Nevermind."); blab2();
            PCListen(); customerlisten(); bmu_text.Text=(" "); bmu_speaker.Text=(" ");}
if (tbr==2){PCListen(); customertalk(); bmu_text.Text=("So..."); blab1();
            PCTalk(); customerlisten(); bmu_text.Text=("Yes, Tim?"); blab1();
            PCListen(); customertalk(); bmu_text.Text=("You getting lots of customers, these days?"); blab2();
            PCTalk(); customerlisten(); bmu_text.Text=("I get enough."); blab1();
            PCListen(); customertalk(); bmu_text.Text=("Well, that's good to hear."); blab2();
            PCListen(); customertalk(); bmu_text.Text=("Hope it keeps up for you."); blab2();
            PCListen(); customerlisten(); bmu_text.Text=(" "); bmu_speaker.Text=(" ");}
if (tbr==3){PCListen(); customertalk(); bmu_text.Text=("So..."); blab1();
            PCTalk(); customerlisten(); bmu_text.Text=("Yes, Tim?"); blab1();
            PCListen(); customertalk(); bmu_text.Text=("Everything going all right, with your stand?"); blab3();
            PCTalk(); customerlisten(); bmu_text.Text=("It's fine."); blab1();
            PCListen(); customertalk(); bmu_text.Text=("Oh, Good."); blab1();
            PCListen(); customertalk(); bmu_text.Text=("I only ask because some local places are having a slow season."); blab4();
            PCListen(); customerlisten(); bmu_text.Text=(" "); bmu_speaker.Text=(" ");}}
if (walmartia<400.00){
int tbr = Random(3);
if (tbr==0){PCListen(); customerlisten(); bmu_text.Text=(" ");}
if (tbr==1){PCListen(); customertalk(); bmu_text.Text=("So..."); blab1();
            PCTalk(); customerlisten(); bmu_text.Text=("Yes, Tim?"); blab1();
            PCListen(); customertalk(); bmu_text.Text=("How's business?"); blab1();
            PCTalk(); customerlisten(); bmu_text.Text=("It's fine."); blab1();
          PCListen(); customerlisten(); bmu_text.Text=(" "); bmu_speaker.Text=(" ");}
if (tbr==2){PCListen(); customertalk(); bmu_text.Text=("So..."); blab1();
            PCTalk(); customerlisten(); bmu_text.Text=("Yes, Tim?"); blab1();
            PCListen(); customertalk(); bmu_text.Text=("You getting lots of customers, these days?"); blab3();
            PCTalk(); customerlisten(); bmu_text.Text=("I get enough."); blab1();
            PCListen(); customertalk(); bmu_text.Text=("Well, that's good to hear."); blab2();
            PCListen(); customertalk(); bmu_text.Text=("Hope it keeps up for you."); blab2();
          PCListen(); customerlisten(); bmu_text.Text=(" "); bmu_speaker.Text=(" ");}
if (tbr==3){PCListen(); customertalk(); bmu_text.Text=("So..."); blab1();
            PCTalk(); customerlisten(); bmu_text.Text=("Yes, Tim?"); blab1();
            PCListen(); customertalk(); bmu_text.Text=("Everything going all right, with your stand?"); blab3();
            PCTalk(); customerlisten(); bmu_text.Text=("It's fine."); blab1();
            PCListen(); customertalk(); bmu_text.Text=("Good. Just asking."); blab1();
            PCListen(); customerlisten(); bmu_text.Text=(" "); bmu_speaker.Text=(" ");}}}

if (GetGlobalInt(94)==1){//Fivestar
PCListen(); customerlisten();
bmu_top.CharacterToUse=Melody;
gBigbyMenu.BackgroundGraphic=5180;
gBigbyMenu.Visible=true;

int Lodystart=Random(5);
if (Lodystart==0){
PCListen(); customertalk(); bmu_text.Text=("What can I be fetchin' for you today?"); blab3();}
if (Lodystart==1){
PCTalk(); customerlisten(); bmu_text.Text=("How are you?"); blab1();
PCListen(); customertalk(); bmu_text.Text=("Oh, melody's just tick-tock, she is."); blab2();}
if (Lodystart==2){
PCTalk(); customerlisten(); bmu_text.Text=("How are you?"); blab1();
PCListen(); customertalk(); bmu_text.Text=("Such is life, and life is such, and with it all it isn't much. "); blab4();
PCListen(); customertalk(); bmu_text.Text=("That's what melody's old mum used to say. "); blab3();}
if (Lodystart==3){
PCTalk(); customerlisten(); bmu_text.Text=("How are you?"); blab1();
PCListen(); customertalk(); bmu_text.Text=("I'm right posh. How're you, then? "); blab3();
PCTalk(); customerlisten(); bmu_text.Text=("I'm good. "); blab1();}
if (Lodystart==4){
PCListen(); customertalk(); bmu_text.Text=("Plenty of good meat left. "); blab2();
PCListen(); customertalk(); bmu_text.Text=("Lots and lots to go 'round. "); blab2();}
if (Lodystart==5){
PCListen(); customertalk(); bmu_text.Text=("Got a haggis round the back freezer... "); blab3();
PCListen(); customertalk(); bmu_text.Text=("Cheap at twice the price, should you be feelin' adventurous. "); blab5();}
customerlisten(); PCListen(); bmu_text.Text=(" "); bmu_speaker.Text=(" ");}
}


function BigbyPortraiture(){
if (DBG0.Graphic ==2184){

if (GetGlobalInt(94)==0){//Tim
PCListen(); customertalk(); 
int shp=Random(2); 
     if (shp==0){dText.Text=("Hey! How've you been?"); blab1();}
else if (shp==1){dText.Text=("Well, whaddayaknow?"); blab1();}
else if (shp==2){dText.Text=("Look who it is.");blab1();}
dName.Text=(" "); dText.Text=(" "); 
PCListen(); customerlisten();
salebuyer=("Tim"); BuyorTalk();}

if (GetGlobalInt(94)==1){//Melody
if (GetGlobalInt(1)!=2){PCListen(); customertalk(); dText.Text=("'Allo, sir!"); blab1();}
if (GetGlobalInt(1)==2){PCListen(); customertalk(); dText.Text=("'Allo, miss!"); blab1();}
PCListen(); customertalk(); dText.Text=("Whot can ol' melody get for you, today?"); blab2();
PCListen(); customerlisten(); dText.Text=(" "); dName.Text=(" ");
salebuyer=("Melody"); BuyorTalk();}

SetTimer(3, 0);}

else 
{}}

function region1_Standing()
{
if((IsKeyPressed(372)==1)||(IsKeyPressed(87)==1))
  {
player.DoorHandle();
int ran=Random(1);
    {    if (ran==0) PlaySoundEx(33, 3);
    else if (ran==1) PlaySoundEx(35, 3);}
if (GetGlobalInt(94)==0){door.SetView(195, 0, 0);}
if (GetGlobalInt(94)==1){door.SetView(196, 0, 0);}
  door.Animate(0, 2, eOnce, eBlock);  
player.DoorHandle2();
int ran2=Random(1);
    {if (ran2==0) PlaySoundEx(34, 3);
    else if (ran2==1) PlaySoundEx(36, 3);}
FadeCharacterOut_NoBlock(player, 99, -15, 0);
  door.Animate(1, 1, eOnce, eBlock);  
if (GetGlobalInt(94)==0){player.ChangeRoom(14, 377, 157);}
if (GetGlobalInt(94)==1){player.ChangeRoom(26, 330, 159);}
  }
}

function region2_Standing(){
if((IsKeyPressed(372)==1)||(IsKeyPressed(87)==1)){
if ((gDialog.Visible==false)&&(gBigbyMenu.Visible==false)){TalkPop();SetTimer(3, 43);}}}

function region2_WalksOff()
{

dName.Text=(" "); dText.Text=(" ");
StopPop();
}

function room_RepExec(){
if (gameover==false){
if (IsTimerExpired(3)==1){BigbyPortraiture();}

if ((hour<12)&&(hour>=10)&&(ampm==1)&&(gDialog.Visible==false)&&(GetGlobalInt(94)==0)){//Bigby Closing Time
CloseAll();
TalkPop(); Wait(40); 
PCListen(); customertalk(); dText.Text=("It's almost time to close up."); blab3();
PCListen(); customertalk(); dText.Text=("See you again soon!"); blab2();
PCListen(); customerlisten(); dText.Text=(" "); dName.Text=(" ");
StopPop(); Wait(40); FadeOut(5); player.ChangeRoom(14, 377, 157);}

if ((hour<12)&&(hour>=6)&&(ampm==1)&&(gDialog.Visible==false)&&(GetGlobalInt(94)==1)){//Fivestar Closing Time
CloseAll();
TalkPop(); Wait(40); 
PCListen(); customertalk(); dText.Text=("Lookathat, love."); blab1();
PCListen(); customertalk(); dText.Text=("Time's slipped away from us!"); blab2();
PCListen(); customertalk(); dText.Text=("Time to close the shop - see you tomorrow, then?"); blab3();
PCListen(); customerlisten(); dText.Text=(" "); dName.Text=(" ");
StopPop(); Wait(40); FadeOut(5); player.ChangeRoom(26, 330, 159);}

}}
function Room_Load()
{
//  aMusic2.Play();
}

function room_AfterFadeIn(){
if (georgeisnorthbound==true){
gStock.Visible=false; gDialog.Visible=false; gameover=true;
FadeIn(25);
Wait(40);
TalkPop();  
player.LockView(31);
player.Animate(4, 3, eOnce, eBlock);
player.LockView(28);
player.Animate(4, 3, eRepeat, eNoBlock);
Wait(28);
PlayMusic(9);
APkittylisten(); glemtalks(); dText.Text=("Murgaow."); blab1(); Wait(40);
APkittytalk(); glemlistens(); dText.Text=("Slow your heart down, Glembovski."); blab2();
APkittytalk(); dText.Text=("It is time now for you to go alone."); blab3();
APkittylisten(); dName.Text=("Glembovski: "); dText.Text=("..."); blab2(); Wait(40);
APkittytalk(); dText.Text=("You can be having the free life you have always been wanting."); blab2();
APkittytalk(); dText.Text=("Tonight you are alone on earth as the prince."); blab2();
APkittylisten(); dName.Text=("Glembovski: "); dText.Text=("..."); blab2(); Wait(40);
APkittylisten(); DBG1.Animate(16, 21, 3, eOnce); Wait(80);
APkittytalk(); glemlistens(); DBG1.Animate(16, 22, 3, eOnce); dText.Text=("You are the prince, now."); blab2();
APkittylisten(); glemtalks(); DBG1.Animate(16, 23, 3, eOnce); dText.Text=("Murgaow."); blab1(); Wait(40);
APkittylisten(); glemlistens(); DBG1.Animate(16, 23, 3, eOnce);  dName.Text=("Andrus: "); dText.Text=("..."); blab2(); Wait(60);
FadeOut(10); Wait(5); gDialog.Visible=false; 
NewScores(0, 3);//Char Select screen set to Northbound

          gPick.Centre(); pick.NormalGraphic=7808; pick.X=0; pick.Y=0; close_pick.Visible=false;//Prepare Animation
          gPick.Visible=true;  StopMusic(); Wait(5); FadeIn(15); pick.Animate(234, 8, 5, eOnce);//Goodbye, Glembovski.
          Wait(100); FadeOut(25);
            
          gPick.Centre(); pick.NormalGraphic=6682; pick.X=0; pick.Y=0; close_pick.Visible=false;//Prepare Animation
          gPick.Visible=true;  StopMusic(); PlaySound(113); Wait(5); FadeIn(15); pick.Animate(234, 0, 5, eOnce);//Run Anim
          //StartCutscene(eSkipAnyKeyOrMouseClick);//Should this be Skippable or not?
          Wait(220);//"Vysotsky 1" Animation Runs
          if (!Game.SkippingCutscene){FadeGuiIn_NoBlock(gFullblack, 0, 0, 0);}
          Wait(140);
          
          FadeOut(25); Wait(5); FadeGuiOut_NoBlock(gFullblack, 100, -250); Wait(3);
          pick.NormalGraphic=6667; Wait(3);//Prep Next Anim
          FadeIn(5); pick.Animate(234, 1, 2, eOnce);//Run Anim
          if (!Game.SkippingCutscene){FadeGuiIn_NoBlock(gFullblack, 0, 0, 0);}
          Wait(180);//"Crying" Animation Runs
          
          FadeOut(25); gFullblack.Visible=false; Wait(5); pick.NormalGraphic=6728; Wait(3);//Prep Next Anim
          FadeIn(64); pick.Animate(234, 2, 5, eOnce);//Run Anim
          Wait(140);//"Vysotsky 2" Animation Runs
          if (!Game.SkippingCutscene){FadeGuiIn_NoBlock(gFullblack, 0, 0, 0);}
          Wait(80);//"Vysotsky 2" Animation Runs
          
          FadeOut(25); Wait(5); FadeGuiOut_NoBlock(gFullblack, 100, -250);
          pick.NormalGraphic=7832; Wait(3);//Prep Next Anim
          FadeIn(5); pick.Animate(234, 9, 3, eOnce);//Run Anim
          if (!Game.SkippingCutscene){FadeGuiIn_NoBlock(gFullblack, 0, 0, 0);}
          Wait(180);//"Suchin is Notified" Animation Runs
          
          FadeOut(25); gFullblack.Visible=false; Wait(5); pick.NormalGraphic=6739; Wait(3);//Prep Next Anim
          FadeIn(64); pick.Animate(234, 4, 4, eOnce);//Run Anim
          Wait(180);//"Vysotsky 3" Animation Runs
          if (!Game.SkippingCutscene){FadeGuiIn_NoBlock(gFullblack, 0, 0, 0);}
          Wait(80);//"Vysotsky 3" Animation Runs
          
          FadeOut(25); Wait(5); FadeGuiOut_NoBlock(gFullblack, 100, -250); Wait(3);
          pick.NormalGraphic=6651; Wait(3);//Prep Next Anim
          FadeIn(5); PlayMusic(0); pick.Animate(234, 5, 2, eOnce);//Run Anim
          Wait(180);//"Pocketknife" Animation Runs
          
      
          FadeOut(1); Wait(80); FadeGuiOut_NoBlock(gFullblack, 100, -250); Wait(3);
          music_slider.Value=100;//Just in case they had it off.
          PlayMusic(41);
          if (SuchinLove>=15){pick.NormalGraphic=6680;}//Alone
          if (SuchinLove<15){pick.NormalGraphic=6681;}//With Carolina
          Wait(3); FadeIn(5);//pick.Animate(234, 5, 2, eOnce);//Run Anim
          gCredits.Visible=true; csprite.NormalGraphic=6760;
          while (csprite.Y>-1000){csprite.Y-=1; Wait(3);}
          gCredits.Visible=false; FadeOut(1); gFullblack.Visible=false; Wait(80);

          Wait(5);gFullblack.Visible=false; gPick.Visible=false; pick.X=38; pick.Y=16; close_pick.Visible=true; 
          Wait(5); FadeGuiOut_NoBlock(gFullblack, 100, -250, 0);Wait(5);
          
          //EndCutscene();//End Cutscene
          //GameOver();
          curtaincall();}
}
