// room script file
// room script file
function on_event(EventType event, int data) {
  if (event==eEventEnterRoomBeforeFadein){
      button_anim_killer(); 
     musique=(music_slider.Value);
     if (musique<=17) SetMusicVolume(-3);
else if ((musique>=18)&&(musique<=34))SetMusicVolume(-2);
else if ((musique>=35)&&(musique<=50))SetMusicVolume(-1);
else if ((musique>=51)&&(musique<=68))SetMusicVolume(0);
else if ((musique>=69)&&(musique<=85))SetMusicVolume(1);
else if ((musique>=86)&&(musique<=95))SetMusicVolume(2);
else if (musique>=96)SetMusicVolume(3);
SetMusicMasterVolume((music_slider.Value));

player.Transparency=0;

if ((ampm==0)&&((hour<8)&&(hour>=1))){//Dark - Early Morning
NatMusic(24); bldgs.Graphic=1706; SetBackgroundFrame(1); sun.Graphic=1709; parking.Graphic=6996;
Pole.Graphic=1488;Trashcan.Graphic=1490;pathwall.Graphic=1492; altpath.Graphic=6613;}//Dark

if ((ampm==0)&&(hour>=8)&&(hour!=12)){//Morning
NatMusic(25); bldgs.Graphic=401; SetBackgroundFrame(0); sun.Graphic=281; parking.Graphic=6995;
Pole.Graphic=1487;Trashcan.Graphic=1489;pathwall.Graphic=1491;altpath.Graphic=6612;}//Light

if ((ampm==1)&&(hour==12)){//NOON
NatMusic(25); bldgs.Graphic=401; SetBackgroundFrame(0); sun.Graphic=281; parking.Graphic=6995;
Pole.Graphic=1487;Trashcan.Graphic=1489;pathwall.Graphic=1491;altpath.Graphic=6612;}//Light

if ((ampm==1)&&(hour<=8)&&(hour!=12)){//day
NatMusic(25); bldgs.Graphic=401; SetBackgroundFrame(0); sun.Graphic=281; parking.Graphic=6995;
Pole.Graphic=1487;Trashcan.Graphic=1489;pathwall.Graphic=1491;altpath.Graphic=6612;}//Light

if ((ampm==1)&&(hour>=9)&&(hour!=12)){//Night
NatMusic(24); bldgs.Graphic=1706; SetBackgroundFrame(1); sun.Graphic=1709; parking.Graphic=6996;
Pole.Graphic=1488;Trashcan.Graphic=1490;pathwall.Graphic=1492; altpath.Graphic=6613;}//Dark

if ((ampm==0)&&(hour==12)){//Midnight
NatMusic(24); bldgs.Graphic=1706; SetBackgroundFrame(1); sun.Graphic=1709; parking.Graphic=6996;
Pole.Graphic=1488;Trashcan.Graphic=1490;pathwall.Graphic=1492;altpath.Graphic=6613;}//Dark

if ((npcVinny_location==22)&&(bldgs.Graphic==401)){Vinny.ChangeRoom(22,364,160); npcVinny_moving=false;}
else {Vinny.ChangeRoom(0,10,10);}

musicplate.Transparency=40; musicplate.SetPosition(-75, 235);
sun.SetPosition(-10, 76);
bg_bldgs.SetPosition(-1, 162);
if (GetGlobalInt(101) == 1){}
if (Stand.Room==22){Stand.Transparency=0;}

if (npcVinny_location==22){
  if (Vinny.Room!=22){
      if ((milhour>7)&&(milhour<19)){//Only bring him here during Biz Hours
        Vinny.ChangeRoom(22, 375, player.y);}}}
if (Vinny.Room==22){Vinny.Baseline=11;  Vinny.ChangeView(216); Vinny.Animate(0, 3, eRepeat, eNoBlock);}

if ((Stand.Room==22)&&(GetGlobalInt(1)!=3)){pathwall.Baseline=50; Stand.Baseline=51;
if (lockup.Room!=22){lockup.ChangeRoom(22); lockup.FollowCharacter(Stand, FOLLOW_EXACTLY, 0);
lockup.Baseline=52; lockup.Transparency=0;}}

}}

function room_LeaveLeft()
{
FadeOut(5);
player.ManualScaling=false;
Wait(5);
SetGlobalInt(98,22);
player.ChangeRoom(10, 100, 100);
}

function room_LeaveRight()
{
FadeOut(5);
player.ManualScaling=false;
Wait(5);
SetGlobalInt(98,22);
player.ChangeRoom(10, 100, 100);
}
function room_RepExec(){
if ((gBonus.Visible==false)&&(gGameover.Visible==false)&&(gBreakdown.Visible==false)&&(gStock.Visible==false)){

if ((ampm==0)&&((hour<8)&&(hour>=1))){//Dark - Early Morning
NatMusic(24); bldgs.Graphic=1706; SetBackgroundFrame(1); sun.Graphic=1709; parking.Graphic=6996;
Pole.Graphic=1488;Trashcan.Graphic=1490;pathwall.Graphic=1492; altpath.Graphic=6613;}//Dark

if ((ampm==0)&&(hour>=8)&&(hour!=12)){//Morning
NatMusic(25); bldgs.Graphic=401; SetBackgroundFrame(0); sun.Graphic=281; parking.Graphic=6995;
Pole.Graphic=1487;Trashcan.Graphic=1489;pathwall.Graphic=1491;altpath.Graphic=6612;}//Light

if ((ampm==1)&&(hour==12)){//NOON
NatMusic(25); bldgs.Graphic=401; SetBackgroundFrame(0); sun.Graphic=281; parking.Graphic=6995;
Pole.Graphic=1487;Trashcan.Graphic=1489;pathwall.Graphic=1491;altpath.Graphic=6612;}//Light

if ((ampm==1)&&(hour<=8)&&(hour!=12)){//day
NatMusic(25); bldgs.Graphic=401; SetBackgroundFrame(0); sun.Graphic=281; parking.Graphic=6995;
Pole.Graphic=1487;Trashcan.Graphic=1489;pathwall.Graphic=1491;altpath.Graphic=6612;}//Light

if ((ampm==1)&&(hour>=9)&&(hour!=12)){//Night
NatMusic(24); bldgs.Graphic=1706; SetBackgroundFrame(1); sun.Graphic=1709; parking.Graphic=6996;
Pole.Graphic=1488;Trashcan.Graphic=1490;pathwall.Graphic=1492; altpath.Graphic=6613;}//Dark

if ((ampm==0)&&(hour==12)){//Midnight
NatMusic(24); bldgs.Graphic=1706; SetBackgroundFrame(1); sun.Graphic=1709; parking.Graphic=6996;
Pole.Graphic=1488;Trashcan.Graphic=1490;pathwall.Graphic=1492;altpath.Graphic=6613;}//Dark


int id = 9;
while (id <= 46) // run for characters with the following IDs: 2, 3, 4, 5, 6
{
if ((character[ id ].x >= 748)||(character[id ].x <= 2)){  character[ id ].ChangeRoom(24, 100, 100);}
id ++; // proceed to testing the next character in a row
}
if (GetGlobalInt(1)==3){Stand.Baseline=(cEgo.y+1);}
if (GetGlobalInt(1)==4){Stand.Baseline=(cLogan.y+1);}

}}//End Repex

function room_AfterFadeIn()
{
FadeObjectOut_NoBlock(musicplate, 99, 10, 0);
if (GetGlobalInt(215)==0){UnlockMusic(); SetGlobalInt(215, 1);}
if (player.PreviousRoom==29){dSaveprompt.Start();}
}

function region1_Standing(){
if(((IsKeyPressed(372)==1)||(IsKeyPressed(87)==1))&&(gMake.Visible==false)&&(gDialog.Visible==false)){//Pizza
if (((ampm==1)&&(hour>9)&&(hour!=12))||((ampm==0)&&((hour<10)))){
Wait(5); player.DoorHandle(); Wait(20); PlaySound(60); 
TopUp("It's locked", "Hours:[10:00am - 9:00pm[Open Every Day!");  player.DoorHandle2();}
else{    
if ((GetGlobalInt(1)==3)&&(GetGlobalInt(52) == 1)){SetGlobalInt(52, 3);Stand.FollowCharacter(null, 0, 0); Wait(5);}
player.DoorHandle();
int ran=Random(1);
    {    if (ran==0) PlaySoundEx(33, 3);
    else if (ran==1) PlaySoundEx(35, 3);
    }
  door.SetView(30, 0, 0);
  door.Animate(0, 2, eOnce, eBlock);  
player.DoorHandle2();
int ran2=Random(1);
    {if (ran2==0) PlaySoundEx(34, 3);
    else if (ran2==1) PlaySoundEx(36, 3);
    }  
FadeCharacterOut_NoBlock(player, 99, -15, 0);
  door.Animate(1, 1, eOnce, eBlock);  
   SetGlobalInt(90, 0);
   player.ChangeRoom(31, 85, 142);
}}}


function region5_Standing(){
if((IsKeyPressed(372)==1)||(IsKeyPressed(87)==1)&&(gMake.Visible==false)){
  d13th_paper.Start(); Wait(5);}  
}

function room_Leave(){
  button_anim_killer();
  places();}

function region2_Standing(){//Bookstore
if(((IsKeyPressed(372)==1)||(IsKeyPressed(87)==1))&&(gMake.Visible==false)&&(gDialog.Visible==false)){
if (((ampm==1)&&(hour>4)&&(hour!=12))||((ampm==0)&&((hour<9)))){
Wait(5); player.DoorHandle(); Wait(20); PlaySound(60); 
TopUp("It's locked", "Hours:[9:00am - 5:00pm[\"Thanks for Stopping By!\"");  player.DoorHandle2();}
else{
if ((GetGlobalInt(1)==3)&&(GetGlobalInt(52) == 1)){SetGlobalInt(52, 0);Stand.FollowCharacter(null, 0, 0); SetGlobalInt(52, 0); Wait(5);}
player.DoorHandle();
int ran=Random(1);
    {    if (ran==0) PlaySoundEx(33, 3);
    else if (ran==1) PlaySoundEx(35, 3);}
  book_door.SetView(181, 0, 0);
  book_door.Animate(0, 2, eOnce, eBlock);  
player.DoorHandle2();
int ran2=Random(1);
    {if (ran2==0) PlaySoundEx(34, 3);
    else if (ran2==1) PlaySoundEx(36, 3);}
FadeCharacterOut_NoBlock(player, 99, -15, 0);
  book_door.Animate(1, 1, eOnce, eBlock);  
   player.ChangeRoom(35, 109, 154);
  }}}