function on_event(EventType event, int data) {
  if (event==eEventEnterRoomBeforeFadein) 
{
       musique=(music_slider.Value);
     if (musique<=17) SetMusicVolume(-3);
else if ((musique>=18)&&(musique<=34))SetMusicVolume(-2);
else if ((musique>=35)&&(musique<=50))SetMusicVolume(-1);
else if ((musique>=51)&&(musique<=68))SetMusicVolume(0);
else if ((musique>=69)&&(musique<=85))SetMusicVolume(1);
else if ((musique>=86)&&(musique<=95))SetMusicVolume(2);
else if (musique>=96)SetMusicVolume(3);
SetMusicMasterVolume((music_slider.Value));
player.Transparency=0;
dText.Visible=true; dName.Text=(" "); dText.Text=(" ");
if (GetGlobalInt(101)==77){//Leaving on a Train
  Glembovski.ChangeRoom(28, player.x-20, player.y); Glembovski.ChangeView(109); Glembovski.Animate(1, 10, eRepeat, eNoBlock);
  gDialog.Visible=false;}

//George
if (George.Room!=28){George.UnlockView(); George.ChangeRoom(28, 225, 149); George.Baseline=10; George.Transparency=0;}
int george_talked; 
SetTimer(2, 0);
salebuyer=("George"); customerlisten();
}
}

int villainy;

function region1_Standing(){
if((IsKeyPressed(372)==1)||(IsKeyPressed(87)==1)){
  if (GetGlobalInt(101)!=77){
player.DoorHandle();
int ran=Random(1);
    {    if (ran==0) PlaySoundEx(33, 3);
    else if (ran==1) PlaySoundEx(35, 3);}
  doora.SetView(30, 0, 0);
  doora.Animate(0, 2, eOnce, eBlock);  
player.DoorHandle2();
int ran2=Random(1);
    {if (ran2==0) PlaySoundEx(34, 3);
    else if (ran2==1) PlaySoundEx(36, 3);}
FadeCharacterOut_NoBlock(player, 99, -15, 0);
  doora.Animate(1, 1, eOnce, eBlock);  
  player.ChangeRoom(7, 213, 193);
  }
}}

function talk_George()
{
if (DBG0.Graphic ==2184){
  DBG2.NormalGraphic=1404;
  PCListen();
  if (kickedout==1){villainy+=1;
  salebuyer=("George"); customerlisten();
  if (villainy==1){
  PCListen(); customertalk(); dText.Text=("Hello? You want new room?"); blab1();//George Talk
  PCListen(); customerlisten(); dName.Text=("Andrus: "); dText.Text=("... "); WaitMouseKey(40);
  PCTalk(); customerlisten(); dText.Text=("I came to be getting of my things."); blab1();//PC Talk
  PCListen(); customertalk(); dText.Text=("They gone. "); blab1();//George Talk
  DBG1.Animate(16, 19, 3, eRepeat); customertalk(); dText.Text=("I throw everything away."); blab1();//George Talk
  customerlisten(); dName.Text=("Andrus: "); dText.Text=("..."); WaitMouseKey(40);
  PCTalk(); DBG1.Animate(16, 18, 3, eRepeat); customerlisten(); dText.Text=("I am just wanting of my cat."); blab1();
  PCListen(); DBG1.Animate(16, 19, 3, eRepeat); customertalk(); dText.Text=("I say already..."); blab1();//George Talk
  PCListen(); DBG1.Animate(16, 19, 3, eRepeat); customertalk(); dText.Text=("I throw everything away."); blab1();//George Talk
  PCListen(); DBG1.Animate(16, 19, 3, eRepeat); customertalk(); dText.Text=("It all garbage."); blab1();//George Talk
  customerlisten(); dName.Text=("Andrus: "); dText.Text=("..."); WaitMouseKey(40);
  PCListen(); DBG1.Animate(16, 19, 3, eRepeat); customertalk(); dText.Text=("If you want new room, it $119.00 per week."); blab1();//George Talk
  PCListen(); customerlisten(); dText.Text=(" "); dName.Text=(" ");
  StopPop();}
  else if (villainy==2){
  PCListen(); DBG1.Animate(16, 19, 3, eRepeat); customertalk(); dText.Text=("You want something else?"); blab1();//George Talk
  PCListen(); DBG1.Animate(16, 19, 3, eRepeat); customerlisten(); dName.Text=("Andrus: "); dText.Text=("... "); WaitMouseKey(40);
  PCTalk(); DBG1.Animate(16, 18, 3, eRepeat); customerlisten(); dText.Text=("I came to be getting of my things."); blab1();//PC Talk
  PCListen(); DBG1.Animate(16, 19, 3, eRepeat); customertalk(); dText.Text=("I tell you already - everything gone. "); blab1();//George Talk
  PCListen(); DBG1.Animate(16, 19, 3, eRepeat); customertalk(); dText.Text=("All the trash get thrown out on trash day. "); blab1();//George Talk
  PCListen(); DBG1.Animate(16, 19, 3, eRepeat); customertalk(); dText.Text=("I clean out that room and throw away toothbrush, catfood, and grey cat. "); blab1();//George Talk
  PCListen(); DBG1.Animate(16, 19, 3, eRepeat); customertalk(); dText.Text=("You no supposed to have cat in room anyway. "); blab1();//George Talk
  PCListen(); DBG1.Animate(16, 19, 3, eRepeat); customertalk(); dText.Text=("It not a problem now. "); blab1();//George Talk
  PCListen(); DBG1.Animate(16, 19, 3, eRepeat); customerlisten(); dName.Text=("Andrus: "); dText.Text=("... "); WaitMouseKey(40);
  PCListen(); DBG1.Animate(16, 19, 3, eRepeat); customertalk(); dText.Text=("If you want new room, it $119.00 per week."); blab1();//George Talk
  PCListen(); DBG1.Animate(16, 19, 3, eRepeat); customerlisten(); dName.Text=("Andrus: "); dText.Text=("... "); WaitMouseKey(40);
  PCListen(); customerlisten(); dText.Text=(" "); dName.Text=(" "); StopPop();}
  else if (villainy>2){
  PCListen(); DBG1.Animate(16, 19, 3, eRepeat); customerlisten(); dName.Text=("Andrus: "); dText.Text=("... "); WaitMouseKey(40);
  PCListen(); customerlisten(); dText.Text=(" "); dName.Text=(" "); StopPop();}
  }
  
  if ((kickedout!=1)&&(GetGlobalInt(201)==0)){//FIRST CONV.
  salebuyer=("George"); customerlisten();
  PCListen(); customertalk(); dText.Text=("Hello? "); blab1();//George Talk
  
  PCTalk(); customerlisten(); dText.Text=("Yes. Hello. "); blab1();//PC Talk
  
  PCListen(); customertalk(); dText.Text=("You want room? "); blab1();//George Talk
  
  PCTalk(); customerlisten(); dText.Text=("I.. Yes. One room, please. "); blab2();//PC Talk
  
  PCListen(); customertalk(); dText.Text=("How long? "); blab1();//George Talk
  
  PCTalk(); customerlisten(); dText.Text=("I'm not sure. A few weeks, maybe."); blab2();//PC Talk
  
  PCListen(); customertalk(); dText.Text=("OK, you pay every week. You pay here, understand?"); blab3();//George Talk
  
  PCTalk(); customerlisten(); dText.Text=("Yes, good. OK."); blab1();//PC Talk
  PCTalk(); dText.Text=("How much is... How much for... this room?"); blab3();//PC Talk
  
  PCListen(); customertalk(); dText.Text=("Room is $119.00 each week. That weekly rate."); blab2();//George Talk
  customertalk(); dText.Text=("You pay now, also."); blab1();//George Talk

  if (Money>=119.00){
  PCTalk(); customerlisten(); dText.Text=("Yes, good. OK."); blab1();//PC Talk
  
  DBG1.Animate(16, 3, 3, eRepeat); dName.Text=(" "); dText.Text=(" "); PlaySound(1);
  player.LockView(28); // Cheque Writing Action
  player.Animate(0, 3, eOnce, eBlock, eForwards);// Cheque Writing Action
  
  DBG1.Animate(16, 1, 3, eRepeat); 
  player.LockView(23); player.Animate(7, 3, eOnce, eBlock, eForwards);// Mag Hands

  PCListen(); Money -=119.00; PlaySound(4); 
  TopUp("Hotel Room Cost: $119.00", "ANDRUS:[Lost $119.00"); WaitKey(30);//Money Spending 
  TopItem("Got 'A3 Key'","119.00",1400);
  //PlaySound(9); DisplayTopBar(35, 8, 8, "", "ANDRUS:[Got 'A3 KEY'!"); 
  WaitKey(30);  cSlot2.AddInventory(A3Key);
  
  PCListen(); customertalk(); dText.Text=("OK, you in A3. Upstairs."); blab1();//George Talk
  customertalk(); dText.Text=("Be quiet in there. "); blab1();//George Talk
  
  PCTalk(); customerlisten(); dText.Text=("Umm. Yes, good. OK."); blab1();//PC Talk

  PCListen(); customertalk(); dText.Text=("One more thing..."); blab1();//George Talk
  PCListen(); customertalk(); dText.Text=("No pets and no guests!"); blab1();//George Talk
  PCListen(); customertalk(); dText.Text=("One person per room - no more."); blab1();//George Talk
  customerlisten(); PCListen(); dText.Text=(" "); dName.Text=(" "); 
  dGeorgeNoPet.Start();
}}
  
  else if (GetGlobalInt(101)==77){//Andrus checking out -> taking the train out of town
  PCListen(); customertalk(); dText.Text=("Yeah? What you want?"); blab1();//PC Talk
  PCTalk(); customerlisten(); dText.Text=("Yes, hello."); blab1();//PC Talk
  PCListen(); customertalk(); dText.Text=("You in A3, upstairs?"); blab1();//George Talk
  PCTalk(); customerlisten(); dText.Text=("Umm. Yes."); blab1();//PC Talk
  PCListen(); customertalk(); dText.Text=("You pay this week already. "); blab1();//George Talk
  PCTalk(); customerlisten(); dText.Text=("Yes. Okay, but I am checking out."); blab1();//PC Talk
  PCListen(); customertalk(); dText.Text=("That fine. Give me your key."); blab1();//George Talk
  PCListen(); customerlisten(); dText.Text=(" "); 
  TopUp("Gave a-3 Key to George","Lost A-3 Key."); cSlot2.LoseInventory(A3Key);
  PCListen(); customertalk(); dText.Text=("Okay."); blab1();//George Talk
  PCListen(); customertalk(); dText.Text=("Bye bye. "); blab1();//George Talk
  StopPop(); George.Walk(George.x+100, George.y, eNoBlock); Wait(40);
  FadeOut(10);//CHECKOUT
  SaveGameSlot(1, "Andrus Autosave"); NewScores(0, 2);//Left on a Train
  Wait(5);
  aMusic12.Play();//Condiments Unspread
  gPick.Visible=true; pick.NormalGraphic=8452;
  vitality.Width=120; nutrition.Width=120; kibbles.Width=120; caffeine.Width=120;//Just in case.
  gPick.Centre(); pick.X=0; pick.Y=0; close_pick.Visible=false;
  Wait(5);
  FadeIn(10);
  Wait(5);
  pick.Animate(277, 0, 2, eOnce); //Standen
  while (pick.NormalGraphic!=8539){Wait(1);}
  Wait(50); //Extra Wait
  
  pick.Animate(277, 1, 3, eOnce);//Thinken
  while (pick.NormalGraphic!=8626){Wait(1);}
  
  pick.Animate(277, 2, 6, eOnce);//Walken
  while (pick.NormalGraphic!=8685){Wait(1);}
  
  pick.Animate(277, 3, 3, eOnce);//Borden
  while (pick.NormalGraphic!=8717){Wait(1);}  
  
  pick.Animate(277, 4, 3, eOnce);//Leaven
  while (pick.NormalGraphic!=8810){Wait(1);}
  Wait(10);
  SetNextScreenTransition(eTransitionFade);
  hour=8; ampm=1; milhour=20;
  player.ChangeRoom(5, 333, 160);
  }
          
  else if ((GetGlobalInt(201)!=0)&&(kickedout!=1)&&(GetGlobalInt(101)!=77)){
  int shp=Random(2); 
  if (shp==0) {
  PCListen(); customertalk(); dText.Text=("You in A3, upstairs?"); blab1();//George Talk
    
  PCTalk(); customerlisten(); dText.Text=("Umm. Yes."); blab1();//PC Talk

  PCListen(); customertalk(); dText.Text=("You pay this week already. "); blab1();//George Talk
  
  PCTalk(); customerlisten(); dText.Text=("Yes. Umm..."); blab1();//PC Talk
  
  PCListen(); customertalk(); dText.Text=("Okay."); blab1();//George Talk
  PCListen(); customertalk(); dText.Text=("Bye bye. "); blab1();//George Talk
  
  customerlisten(); PCListen(); dText.Text=(" "); dName.Text=(" "); StopPop();}

else if (shp==1)
{
  PCListen(); customertalk(); dText.Text=("You A3, right?"); blab1();//George Talk
    
  PCTalk(); customerlisten(); dText.Text=("Umm. Yes. Room A3."); blab1();//PC Talk

  PCListen(); customertalk(); dText.Text=("You already pay for this week. "); blab1();//George Talk
  
  PCTalk(); customerlisten(); dText.Text=("Yes. Umm..."); blab1();//PC Talk
  
  PCListen(); customertalk(); dText.Text=("Okay."); blab1();//George Talk
  PCListen(); customertalk(); dText.Text=("Bye bye. "); blab1();//George Talk
  
  customerlisten(); PCListen(); dText.Text=(" "); dName.Text=(" "); StopPop(); 
}

else if (shp==2)
{
  PCListen(); customertalk(); dText.Text=("Hello A3."); blab1();//George Talk
    
  PCTalk(); customerlisten(); dText.Text=("Yes. Hello."); blab1();//PC Talk

  PCListen(); customertalk(); dText.Text=("You pay this week already. "); blab1();//George Talk
  
  PCTalk(); customerlisten(); dText.Text=("Yes. Umm..."); blab1();//PC Talk
  
  PCListen(); customertalk(); dText.Text=("Okay."); blab1();//George Talk
  PCListen(); customertalk(); dText.Text=("Bye bye. "); blab1();//George Talk
  customerlisten(); PCListen(); dText.Text=(" "); dName.Text=(" "); StopPop(); 
}
  George.Walk(260, 149, eNoBlock, eAnywhere);
  dName.Text=(" "); dText.Text=(" ");  //blank
  SetTimer(3, 0);
}
else 
{}}}


function room_RepExec()
{
if (IsTimerExpired(3)==1){talk_George();}
}

function region2_Standing(){
if ((gDialog.Visible==false)&&(George.Moving==false)&&(George.x<215)){
if ((kickedout!=1)&&(GetGlobalInt(201)==0)){TalkPop(); SetTimer(3, 43);}//FIRST CONV.
else{if((IsKeyPressed(372)==1)||(IsKeyPressed(87)==1)){TalkPop(); SetTimer(3, 43);}//All Other Convs.
}}}


//}
function region2_WalksOnto(){
if (George.x > 200)George.Walk(195, 149, eNoBlock, eAnywhere);
}

function region2_WalksOff()
{if ((George.Moving==false)&&(George.x==195)){George.Walk(260, 149, eNoBlock, eAnywhere);}}

function room_FirstLoad(){villainy=0;}

function room_Leave(){George.LockView(66); George.SetWalkSpeed(2, 2);}
