// room script file
function on_event(EventType event, int data) {
  if (event==eEventEnterRoomBeforeFadein) 
{
     musique=(music_slider.Value);
     if (musique<=17) SetMusicVolume(-3);
else if ((musique>=18)&&(musique<=34))SetMusicVolume(-2);
else if ((musique>=35)&&(musique<=50))SetMusicVolume(-1);
else if ((musique>=51)&&(musique<=68))SetMusicVolume(0);
else if ((musique>=69)&&(musique<=85))SetMusicVolume(1);
else if ((musique>=86)&&(musique<=95))SetMusicVolume(2);
else if (musique>=96)SetMusicVolume(3);
SetMusicMasterVolume((music_slider.Value));

PlayMusic(16);
//aMusic16.Play();

player.Transparency = 0;
SetBackgroundFrame(0);
}
}


function region2_Standing()
{
if (GetBackgroundFrame()!=0){}
else{
if((IsKeyPressed(372)==1)||(IsKeyPressed(87)==1))
  {
player.DoorHandle();
int ran=Random(1);
    {    if (ran==0) PlaySoundEx(33, 3);
    else if (ran==1) PlaySoundEx(35, 3);
    }
  creditsdoor.SetView(44, 0, 0);
  creditsdoor.Animate(0, 2, eOnce, eBlock);  
  player.DoorHandle2();
  int ran2=Random(1);
    {    if (ran2==0) PlaySoundEx(34, 3);
    else if (ran2==1) PlaySoundEx(36, 3);
    }  
FadeCharacterOut_NoBlock(player, 99, -15, 0);
  creditsdoor.Animate(1, 1, eOnce, eBlock);  
  player.ChangeRoom(23, 179, 197);}}
}


function region1_Standing()
{
if (GetBackgroundFrame()==2){}
else{
if((IsKeyPressed(372)==1)||(IsKeyPressed(87)==1))
  {
player.DoorHandle();
int ran=Random(1);
    {    if (ran==0) PlaySoundEx(33, 3);
    else if (ran==1) PlaySoundEx(35, 3);
    }
  musicdoor.SetView(45, 0, 0);
  musicdoor.Animate(0, 2, eOnce, eBlock);  
  player.DoorHandle2();
  int ran2=Random(1);
    {    if (ran2==0) PlaySoundEx(34, 3);
    else if (ran2==1) PlaySoundEx(36, 3);
    }  
FadeCharacterOut_NoBlock(player, 99, -15, 0);
  musicdoor.Animate(1, 1, eOnce, eBlock);
  FadeOut(10); Wait(10); cMelanie.Transparency=100; cLogan.Transparency=100; cAndrus.Transparency=100; cEgo.Transparency=100;
if (GetBackgroundFrame()==0){SetBackgroundFrame(1); creditsdoor.Transparency=100; castdoor.Transparency=100;}
else if (GetBackgroundFrame()==1){SetBackgroundFrame(0); creditsdoor.Transparency=0; castdoor.Transparency=0; cMelanie.Transparency=0; cLogan.Transparency=0; cAndrus.Transparency=0; cEgo.Transparency=0;}
player.Transparency=0; Wait(10); FadeIn(10);}}
}

function region3_Standing()
{
  if (GetBackgroundFrame()==1){}
else{
if((IsKeyPressed(372)==1)||(IsKeyPressed(87)==1))
  {
player.DoorHandle();
int ran=Random(1);
    {    if (ran==0) PlaySoundEx(33, 3);
    else if (ran==1) PlaySoundEx(35, 3);
    }
  castdoor.SetView(45, 0, 0);
  castdoor.Animate(0, 2, eOnce, eBlock);  
  player.DoorHandle2();
  int ran2=Random(1);
    {    if (ran2==0) PlaySoundEx(34, 3);
    else if (ran2==1) PlaySoundEx(36, 3);
    }  
FadeCharacterOut_NoBlock(player, 99, -15, 0);
  castdoor.Animate(1, 1, eOnce, eBlock);
  FadeOut(10); Wait(10); cMelanie.Transparency=100; cLogan.Transparency=100; cAndrus.Transparency=100; cEgo.Transparency=100;
if (GetBackgroundFrame()==0){SetBackgroundFrame(2); creditsdoor.Transparency=100; musicdoor.Transparency=100;}
else if (GetBackgroundFrame()==2){SetBackgroundFrame(0); creditsdoor.Transparency=0; musicdoor.Transparency=0; cMelanie.Transparency=0; cLogan.Transparency=0; cAndrus.Transparency=0; cEgo.Transparency=0;}
  player.Transparency=0; Wait(10); FadeIn(10);}}
}
function room_AfterFadeIn()
{
if (GetGlobalInt(224)==0){UnlockMusic(); SetGlobalInt(224, 1);}
}

function Room_Load()
{}
